…
```r
total_steps <- data %>%
        group_by(date) %>%
        filter(!is.na(steps)) %>% 
        summarize(total_steps = sum(steps, na.rm=TRUE))
total_steps
```

```
## # A tibble: 53 x 2
##    date       total_steps
##    <date>           <int>
##  1 2012-10-02         126
##  2 2012-10-03       11352
##  3 2012-10-04       12116
##  4 2012-10-05       13294
##  5 2012-10-06       15420
##  6 2012-10-07       11015
##  7 2012-10-09       12811
##  8 2012-10-10        9900
##  9 2012-10-11       10304
## 10 2012-10-12       17382
## # ... with 43 more rows
```
…
### 4. What is the average daily activity pattern?


```r
Interval <- data %>%
        group_by(interval)%>%
        filter(!is.na(steps))%>%
        summarize(avg_steps = mean(steps, na.rm=TRUE))
Interval
```

```
## # A tibble: 288 x 2
##    interval avg_steps
##       <int>     <dbl>
##  1        0    1.72  
##  2        5    0.340 
##  3       10    0.132 
##  4       15    0.151 
##  5       20    0.0755
##  6       25    2.09  
##  7       30    0.528 
##  8       35    0.868 
##  9       40    0     
## 10       45    1.47  
## # ... with 278 more rows
```
…
        5d. Make a histogram of the total number of steps taken each day. 
        

```r
library(ggplot2)
total_steps2 <- activitydata %>%
        group_by(date) %>%
        summarize(total_steps = sum(steps, na.rm=TRUE))
total_steps2
```

```
## # A tibble: 61 x 2
##    date       total_steps
##    <date>           <dbl>
##  1 2012-10-01       10766
##  2 2012-10-02         126
##  3 2012-10-03       11352
##  4 2012-10-04       12116
##  5 2012-10-05       13294
##  6 2012-10-06       15420
##  7 2012-10-07       11015
##  8 2012-10-08       10766
##  9 2012-10-09       12811
## 10 2012-10-10        9900
## # ... with 51 more rows
```
…
        6b. Make a panel plot containing a time series plot (i.e. type = "l") of the 5-minute interval (x-axis) and the average number of steps taken, averaged across all weekday days or weekend days (y-axis). See the README file in the GitHub repository to see an example of what this plot should look like using simulated data.


```r
library(ggplot2)
interval2 <- activitydata %>%
        group_by(interval, weekday) %>%
        summarize(avg_steps2 = mean(steps, na.rm=TRUE))
interval2
```

```
## # A tibble: 576 x 3
## # Groups: interval [?]
##    interval weekday avg_steps2
##       <int> <chr>        <dbl>
##  1        0 Weekday       7.01
##  2        0 Weekend       4.67
##  3        5 Weekday       5.38
##  4        5 Weekend       4.67
##  5       10 Weekday       5.14
##  6       10 Weekend       4.67
##  7       15 Weekday       5.16
##  8       15 Weekend       4.67
##  9       20 Weekday       5.07
## 10       20 Weekend       4.67
## # ... with 566 more rows
```
…
